{
    "content": [
        {
            "document_id": 3,
            "download_link": "example_link",
            "created": "2020-03-13T14:55:34.000+0000",
            "ref_no": "ABC1",
            "status": "PENDING",
            "color": "TRI",
            "side": "DOUBLE",
            "client_id": 2,
            "shopper_id": 3
        },
        {
            "document_id": 4,
            "download_link": "example_link",
            "created": "2020-03-13T14:55:56.000+0000",
            "ref_no": "ABC1",
            "status": "PENDING",
            "color": "BLACK",
            "side": "DOUBLE",
            "client_id": 2,
            "shopper_id": 3
        }
    ],
    "pageable": {
        "sort": {
            "sorted": true,
            "unsorted": false,
            "empty": false
        },
        "offset": 2,
        "pageNumber": 1,
        "pageSize": 2,
        "paged": true,
        "unpaged": false
    },
    "totalPages": 2,
    "totalElements": 4,
    "last": true,
    "size": 2,
    "number": 1,
    "sort": {
        "sorted": true,
        "unsorted": false,
        "empty": false
    },
    "numberOfElements": 2,
    "first": false,
    "empty": false
}